EESchema Schematic File Version 2
LIBS:power
LIBS:device
LIBS:switches
LIBS:relays
LIBS:motors
LIBS:transistors
LIBS:conn
LIBS:linear
LIBS:regul
LIBS:74xx
LIBS:cmos4000
LIBS:adc-dac
LIBS:memory
LIBS:xilinx
LIBS:microcontrollers
LIBS:dsp
LIBS:microchip
LIBS:analog_switches
LIBS:motorola
LIBS:texas
LIBS:intel
LIBS:audio
LIBS:interface
LIBS:digital-audio
LIBS:philips
LIBS:display
LIBS:cypress
LIBS:siliconi
LIBS:opto
LIBS:atmel
LIBS:contrib
LIBS:valves
LIBS:arm-swd-header
LIBS:at25sf041
LIBS:at42qt1011
LIBS:BMD-300
LIBS:bq24074
LIBS:cat25512
LIBS:dcdc
LIBS:drv2603
LIBS:EMW3165
LIBS:encoder-switch
LIBS:fiducial
LIBS:ft231x
LIBS:ldo
LIBS:logic
LIBS:lsm6ds3
LIBS:mcp73831
LIBS:MDBT40
LIBS:net-tie
LIBS:NTR4101P
LIBS:pin_array_17x1
LIBS:STC3100
LIBS:swd
LIBS:USB_A
LIBS:USB_B_MICRO
LIBS:usblc6
LIBS:ws2812b
LIBS:pictiva-breakout-cache
EELAYER 25 0
EELAYER END
$Descr A4 11693 8268
encoding utf-8
Sheet 1 1
Title ""
Date ""
Rev ""
Comp ""
Comment1 ""
Comment2 ""
Comment3 ""
Comment4 ""
$EndDescr
$Comp
L Conn_01x18 J1
U 1 1 59E9C4BA
P 1550 1600
F 0 "J1" H 1550 2500 50  0000 C CNN
F 1 "OLED FFC 18" H 1550 600 39  0000 C CNN
F 2 "modules:fpc-0.5mm-18" H 1550 1600 50  0001 C CNN
F 3 "" H 1550 1600 50  0001 C CNN
	1    1550 1600
	1    0    0    -1  
$EndComp
Text GLabel 1350 800  0    39   Input ~ 0
~CS
Text GLabel 1350 900  0    39   Input ~ 0
~RST
NoConn ~ 1350 1000
Text GLabel 1350 1100 0    39   Input ~ 0
~DC
NoConn ~ 1350 1200
NoConn ~ 1350 1300
Text GLabel 1350 1400 0    39   Input ~ 0
SCK
Text GLabel 1350 1500 0    39   Input ~ 0
MOSI
NoConn ~ 1350 1600
NoConn ~ 1350 1700
NoConn ~ 1350 1800
NoConn ~ 1350 1900
NoConn ~ 1350 2000
NoConn ~ 1350 2100
NoConn ~ 1350 2200
$Comp
L GND #PWR01
U 1 1 59E9C5EA
P 1100 2500
F 0 "#PWR01" H 1100 2250 50  0001 C CNN
F 1 "GND" H 1100 2350 39  0000 C CNN
F 2 "" H 1100 2500 50  0001 C CNN
F 3 "" H 1100 2500 50  0001 C CNN
	1    1100 2500
	1    0    0    -1  
$EndComp
$Comp
L +12V #PWR02
U 1 1 59E9C61B
P 850 2300
F 0 "#PWR02" H 850 2150 50  0001 C CNN
F 1 "+12V" H 850 2440 39  0000 C CNN
F 2 "" H 850 2300 50  0001 C CNN
F 3 "" H 850 2300 50  0001 C CNN
	1    850  2300
	1    0    0    -1  
$EndComp
$Comp
L +3.3V #PWR03
U 1 1 59E9C645
P 1100 2300
F 0 "#PWR03" H 1100 2150 50  0001 C CNN
F 1 "+3.3V" H 1100 2440 39  0000 C CNN
F 2 "" H 1100 2300 50  0001 C CNN
F 3 "" H 1100 2300 50  0001 C CNN
	1    1100 2300
	1    0    0    -1  
$EndComp
$Comp
L MT3608 U2
U 1 1 59E9C74D
P 2750 1500
F 0 "U2" H 2760 1205 39  0000 C CNN
F 1 "MT3608" H 2750 1795 39  0000 C CNN
F 2 "TO_SOT_Packages_SMD:SOT-23-6" H 2750 1500 60  0001 C CNN
F 3 "" H 2750 1500 60  0001 C CNN
	1    2750 1500
	1    0    0    -1  
$EndComp
Text GLabel 2450 1500 0    39   Input ~ 0
EN
$Comp
L C_Small C1
U 1 1 59E9C919
P 2200 1500
F 0 "C1" H 2210 1570 39  0000 L CNN
F 1 "10uF" V 2100 1450 39  0000 L CNN
F 2 "Capacitors_SMD:C_0805" H 2200 1500 50  0001 C CNN
F 3 "" H 2200 1500 50  0001 C CNN
	1    2200 1500
	1    0    0    -1  
$EndComp
$Comp
L D_Schottky_Small_ALT D3
U 1 1 59E9CA4F
P 3225 1050
F 0 "D3" H 3175 1130 39  0000 L CNN
F 1 "D_Schottky_Small_ALT" H 2945 970 50  0001 L CNN
F 2 "Diodes_SMD:D_SOD-123" V 3225 1050 50  0001 C CNN
F 3 "" V 3225 1050 50  0001 C CNN
	1    3225 1050
	-1   0    0    1   
$EndComp
$Comp
L L_Small L1
U 1 1 59E9CB5F
P 2750 1050
F 0 "L1" V 2825 1000 39  0000 L CNN
F 1 "4.7uH" V 2700 975 39  0000 L CNN
F 2 "modules:NR3015T220M" H 2750 1050 50  0001 C CNN
F 3 "" H 2750 1050 50  0001 C CNN
	1    2750 1050
	0    -1   -1   0   
$EndComp
$Comp
L GND #PWR04
U 1 1 59E9CD88
P 3375 1900
F 0 "#PWR04" H 3375 1650 50  0001 C CNN
F 1 "GND" H 3375 1750 39  0000 C CNN
F 2 "" H 3375 1900 50  0001 C CNN
F 3 "" H 3375 1900 50  0001 C CNN
	1    3375 1900
	1    0    0    -1  
$EndComp
$Comp
L R_Small R4
U 1 1 59E9CEE8
P 3375 1750
F 0 "R4" H 3450 1775 39  0000 L CNN
F 1 "10K" H 3450 1700 39  0000 L CNN
F 2 "Resistors_SMD:R_0805" H 3375 1750 50  0001 C CNN
F 3 "" H 3375 1750 50  0001 C CNN
	1    3375 1750
	1    0    0    -1  
$EndComp
$Comp
L R_Small R3
U 1 1 59E9D07D
P 3375 1325
F 0 "R3" H 3450 1350 39  0000 L CNN
F 1 "190K" H 3450 1275 39  0000 L CNN
F 2 "Resistors_SMD:R_0805" H 3375 1325 50  0001 C CNN
F 3 "" H 3375 1325 50  0001 C CNN
	1    3375 1325
	1    0    0    -1  
$EndComp
$Comp
L C_Small C2
U 1 1 59E9D21A
P 3775 1475
F 0 "C2" H 3785 1545 39  0000 L CNN
F 1 "10uF" V 3675 1425 39  0000 L CNN
F 2 "Capacitors_SMD:C_0805" H 3775 1475 50  0001 C CNN
F 3 "" H 3775 1475 50  0001 C CNN
	1    3775 1475
	1    0    0    -1  
$EndComp
$Comp
L +12V #PWR05
U 1 1 59E9D3F4
P 3775 975
F 0 "#PWR05" H 3775 825 50  0001 C CNN
F 1 "+12V" H 3775 1115 39  0000 C CNN
F 2 "" H 3775 975 50  0001 C CNN
F 3 "" H 3775 975 50  0001 C CNN
	1    3775 975 
	1    0    0    -1  
$EndComp
Text Notes 3225 1500 0    39   ~ 0
0.6V
$Comp
L Conn_01x08 J2
U 1 1 59E9E8A5
P 3745 3450
F 0 "J2" H 3745 3850 50  0000 C CNN
F 1 "Conn" H 3745 2950 39  0000 C CNN
F 2 "Pin_Headers:Pin_Header_Straight_1x08_Pitch2.54mm" H 3745 3450 50  0001 C CNN
F 3 "" H 3745 3450 50  0001 C CNN
	1    3745 3450
	1    0    0    -1  
$EndComp
$Comp
L GND #PWR06
U 1 1 59E9EB00
P 3175 3895
F 0 "#PWR06" H 3175 3645 50  0001 C CNN
F 1 "GND" H 3175 3745 39  0000 C CNN
F 2 "" H 3175 3895 50  0001 C CNN
F 3 "" H 3175 3895 50  0001 C CNN
	1    3175 3895
	1    0    0    -1  
$EndComp
Text GLabel 3545 3750 0    39   Input ~ 0
EN
$Comp
L GND #PWR07
U 1 1 59E9FA19
P 2050 1900
F 0 "#PWR07" H 2050 1650 50  0001 C CNN
F 1 "GND" H 2050 1750 39  0000 C CNN
F 2 "" H 2050 1900 50  0001 C CNN
F 3 "" H 2050 1900 50  0001 C CNN
	1    2050 1900
	1    0    0    -1  
$EndComp
Text GLabel 3545 3150 0    39   Input ~ 0
~CS1
Text GLabel 3545 3250 0    39   Input ~ 0
~RST1
Text GLabel 3545 3350 0    39   Input ~ 0
~DC1
$Comp
L VCC #PWR08
U 1 1 5A8258BE
P 3175 3555
F 0 "#PWR08" H 3175 3405 50  0001 C CNN
F 1 "VCC" H 3175 3705 39  0000 C CNN
F 2 "" H 3175 3555 50  0001 C CNN
F 3 "" H 3175 3555 50  0001 C CNN
	1    3175 3555
	1    0    0    -1  
$EndComp
$Comp
L MCP1700T U1
U 1 1 5A825BB3
P 1840 3250
F 0 "U1" H 1850 3370 60  0000 C CNN
F 1 "XC6206P332MR" H 1840 3510 39  0000 C CNN
F 2 "TO_SOT_Packages_SMD:SOT-23" H 1840 3250 60  0001 C CNN
F 3 "" H 1840 3250 60  0001 C CNN
	1    1840 3250
	1    0    0    -1  
$EndComp
$Comp
L VCC #PWR09
U 1 1 5A825E1E
P 1285 3110
F 0 "#PWR09" H 1285 2960 50  0001 C CNN
F 1 "VCC" H 1285 3260 39  0000 C CNN
F 2 "" H 1285 3110 50  0001 C CNN
F 3 "" H 1285 3110 50  0001 C CNN
	1    1285 3110
	1    0    0    -1  
$EndComp
$Comp
L +3.3V #PWR010
U 1 1 5A825F41
P 2395 3130
F 0 "#PWR010" H 2395 2980 50  0001 C CNN
F 1 "+3.3V" H 2395 3270 39  0000 C CNN
F 2 "" H 2395 3130 50  0001 C CNN
F 3 "" H 2395 3130 50  0001 C CNN
	1    2395 3130
	1    0    0    -1  
$EndComp
$Comp
L GND #PWR011
U 1 1 5A82618C
P 1840 3810
F 0 "#PWR011" H 1840 3560 50  0001 C CNN
F 1 "GND" H 1840 3660 39  0000 C CNN
F 2 "" H 1840 3810 50  0001 C CNN
F 3 "" H 1840 3810 50  0001 C CNN
	1    1840 3810
	1    0    0    -1  
$EndComp
$Comp
L VCC #PWR012
U 1 1 5A82637F
P 2040 975
F 0 "#PWR012" H 2040 825 50  0001 C CNN
F 1 "VCC" H 2040 1125 39  0000 C CNN
F 2 "" H 2040 975 50  0001 C CNN
F 3 "" H 2040 975 50  0001 C CNN
	1    2040 975 
	1    0    0    -1  
$EndComp
Wire Wire Line
	1100 2500 1350 2500
Wire Wire Line
	850  2400 1350 2400
Wire Wire Line
	1100 2300 1350 2300
Wire Wire Line
	850  2300 850  2400
Wire Wire Line
	2050 1650 2450 1650
Wire Wire Line
	2040 1350 2450 1350
Wire Wire Line
	2200 1400 2200 1350
Connection ~ 2200 1350
Wire Wire Line
	2200 1600 2200 1650
Connection ~ 2200 1650
Wire Wire Line
	2650 1050 2350 1050
Wire Wire Line
	2350 1050 2350 1350
Connection ~ 2350 1350
Wire Wire Line
	2850 1050 3125 1050
Wire Wire Line
	3050 1350 3050 1050
Connection ~ 3050 1050
Wire Wire Line
	2050 1650 2050 1900
Wire Wire Line
	3375 1850 3375 1900
Wire Wire Line
	3325 1050 3775 1050
Wire Wire Line
	3375 1050 3375 1225
Wire Wire Line
	3375 1425 3375 1650
Wire Wire Line
	3775 975  3775 1375
Connection ~ 3375 1050
Wire Wire Line
	3775 1575 3775 1875
Wire Wire Line
	3775 1875 3375 1875
Connection ~ 3375 1875
Connection ~ 3775 1050
Wire Wire Line
	3050 1650 3225 1650
Wire Wire Line
	3225 1650 3225 1525
Wire Wire Line
	3225 1525 3375 1525
Connection ~ 3375 1525
Wire Wire Line
	2240 3250 2395 3250
Wire Wire Line
	2395 3130 2395 3385
Wire Wire Line
	1285 3110 1285 3390
Wire Wire Line
	1285 3250 1440 3250
Wire Wire Line
	1840 3810 1840 3650
Wire Wire Line
	2040 975  2040 1350
Text GLabel 3545 3450 0    39   Input ~ 0
SCK1
Text GLabel 3545 3550 0    39   Input ~ 0
MOSI1
Wire Wire Line
	3175 3895 3175 3850
Wire Wire Line
	3175 3850 3545 3850
Wire Wire Line
	3175 3555 3175 3650
Wire Wire Line
	3175 3650 3545 3650
$Comp
L 74LVC245 U3
U 1 1 5A82AEE7
P 5495 3455
F 0 "U3" H 5345 4005 60  0000 C CNN
F 1 "74LVC245" H 5495 2905 60  0000 C CNN
F 2 "Housings_SSOP:SSOP-20_5.3x7.2mm_Pitch0.65mm" H 5495 3455 60  0001 C CNN
F 3 "" H 5495 3455 60  0000 C CNN
	1    5495 3455
	1    0    0    -1  
$EndComp
Wire Wire Line
	5145 3005 5065 3005
Wire Wire Line
	5065 3005 5065 2725
Wire Wire Line
	5065 2725 5895 2725
Wire Wire Line
	5895 2725 5895 3005
Wire Wire Line
	5895 3005 5845 3005
$Comp
L +3.3V #PWR013
U 1 1 5A82B1FD
P 5495 2530
F 0 "#PWR013" H 5495 2380 50  0001 C CNN
F 1 "+3.3V" H 5495 2670 39  0000 C CNN
F 2 "" H 5495 2530 50  0001 C CNN
F 3 "" H 5495 2530 50  0001 C CNN
	1    5495 2530
	1    0    0    -1  
$EndComp
Wire Wire Line
	5495 2530 5495 2725
Connection ~ 5495 2725
$Comp
L GND #PWR014
U 1 1 5A82B759
P 6335 3105
F 0 "#PWR014" H 6335 2855 50  0001 C CNN
F 1 "GND" H 6335 2955 39  0000 C CNN
F 2 "" H 6335 3105 50  0001 C CNN
F 3 "" H 6335 3105 50  0001 C CNN
	1    6335 3105
	1    0    0    -1  
$EndComp
Wire Wire Line
	5845 3105 6335 3105
$Comp
L GND #PWR015
U 1 1 5A82B931
P 5080 4060
F 0 "#PWR015" H 5080 3810 50  0001 C CNN
F 1 "GND" H 5080 3910 39  0000 C CNN
F 2 "" H 5080 4060 50  0001 C CNN
F 3 "" H 5080 4060 50  0001 C CNN
	1    5080 4060
	1    0    0    -1  
$EndComp
Wire Wire Line
	5080 4060 5080 3905
Wire Wire Line
	5080 3905 5145 3905
Text GLabel 4950 3105 0    39   Input ~ 0
MOSI1
Text GLabel 4950 3205 0    39   Input ~ 0
SCK1
Text GLabel 4950 3305 0    39   Input ~ 0
~DC1
Text GLabel 4950 3405 0    39   Input ~ 0
~RST1
Text GLabel 4950 3505 0    39   Input ~ 0
~CS1
Wire Wire Line
	6040 3505 5845 3505
Wire Wire Line
	5845 3405 6040 3405
Wire Wire Line
	5845 3305 6040 3305
Wire Wire Line
	5845 3205 6040 3205
Wire Wire Line
	6040 3605 5845 3605
NoConn ~ 5145 3605
NoConn ~ 5145 3705
NoConn ~ 5145 3805
NoConn ~ 5845 3705
NoConn ~ 5845 3805
NoConn ~ 5845 3905
Text GLabel 6040 3605 2    39   Input ~ 0
~CS
Wire Wire Line
	5145 3405 4950 3405
Wire Wire Line
	4950 3305 5145 3305
Wire Wire Line
	4950 3205 5145 3205
Wire Wire Line
	4950 3105 5145 3105
Wire Wire Line
	5145 3505 4950 3505
Text GLabel 6040 3205 2    39   Input ~ 0
MOSI
Text GLabel 6040 3305 2    39   Input ~ 0
SCK
Text GLabel 6040 3405 2    39   Input ~ 0
~DC
Text GLabel 6040 3505 2    39   Input ~ 0
~RST
$Comp
L C_Small C3
U 1 1 5A837130
P 1285 3490
F 0 "C3" H 1295 3560 39  0000 L CNN
F 1 "10uF" V 1185 3440 39  0000 L CNN
F 2 "Capacitors_SMD:C_0402_NoSilk" H 1285 3490 50  0001 C CNN
F 3 "" H 1285 3490 50  0001 C CNN
	1    1285 3490
	1    0    0    -1  
$EndComp
$Comp
L C_Small C4
U 1 1 5A837326
P 2395 3485
F 0 "C4" H 2405 3555 39  0000 L CNN
F 1 "10uF" V 2295 3435 39  0000 L CNN
F 2 "Capacitors_SMD:C_0402_NoSilk" H 2395 3485 50  0001 C CNN
F 3 "" H 2395 3485 50  0001 C CNN
	1    2395 3485
	1    0    0    -1  
$EndComp
Connection ~ 2395 3250
Connection ~ 1285 3250
Wire Wire Line
	1285 3590 1285 3700
Wire Wire Line
	1285 3700 1840 3700
Connection ~ 1840 3700
Wire Wire Line
	2395 3585 2395 3770
Wire Wire Line
	2395 3770 1840 3770
Connection ~ 1840 3770
$EndSCHEMATC
