(kicad_pcb (version 4) (host pcbnew 4.0.7+dfsg1-1)

  (general
    (links 40)
    (no_connects 0)
    (area 99.622599 99.924999 125.124801 125.075001)
    (thickness 1.6)
    (drawings 4)
    (tracks 126)
    (zones 0)
    (modules 13)
    (nets 34)
  )

  (page A4)
  (layers
    (0 F.Cu signal)
    (31 B.Cu signal)
    (32 B.Adhes user)
    (33 F.Adhes user)
    (34 B.Paste user)
    (35 F.Paste user)
    (36 B.SilkS user)
    (37 F.SilkS user)
    (38 B.Mask user)
    (39 F.Mask user)
    (40 Dwgs.User user hide)
    (41 Cmts.User user hide)
    (42 Eco1.User user)
    (43 Eco2.User user)
    (44 Edge.Cuts user)
    (45 Margin user)
    (46 B.CrtYd user hide)
    (47 F.CrtYd user hide)
    (48 B.Fab user hide)
    (49 F.Fab user hide)
  )

  (setup
    (last_trace_width 0.3048)
    (user_trace_width 0.1524)
    (user_trace_width 0.254)
    (user_trace_width 0.3048)
    (user_trace_width 0.4064)
    (user_trace_width 0.508)
    (user_trace_width 0.762)
    (user_trace_width 1.016)
    (trace_clearance 0.1524)
    (zone_clearance 0.0254)
    (zone_45_only no)
    (trace_min 0.1524)
    (segment_width 0.2)
    (edge_width 0.15)
    (via_size 0.3048)
    (via_drill 0.254)
    (via_min_size 0.1524)
    (via_min_drill 0.1016)
    (uvia_size 0.2032)
    (uvia_drill 0.1524)
    (uvias_allowed no)
    (uvia_min_size 0.1016)
    (uvia_min_drill 0.0508)
    (pcb_text_width 0.3)
    (pcb_text_size 1.5 1.5)
    (mod_edge_width 0.15)
    (mod_text_size 1 1)
    (mod_text_width 0.15)
    (pad_size 1.06 0.65)
    (pad_drill 0)
    (pad_to_mask_clearance 0.2)
    (aux_axis_origin 100 125)
    (visible_elements FFFEFF7F)
    (pcbplotparams
      (layerselection 0x010f0_80000001)
      (usegerberextensions true)
      (excludeedgelayer true)
      (linewidth 0.020000)
      (plotframeref false)
      (viasonmask true)
      (mode 1)
      (useauxorigin true)
      (hpglpennumber 1)
      (hpglpenspeed 20)
      (hpglpendiameter 15)
      (hpglpenoverlay 2)
      (psnegative false)
      (psa4output false)
      (plotreference false)
      (plotvalue false)
      (plotinvisibletext false)
      (padsonsilk false)
      (subtractmaskfromsilk false)
      (outputformat 1)
      (mirror false)
      (drillshape 0)
      (scaleselection 1)
      (outputdirectory gerber/))
  )

  (net 0 "")
  (net 1 +3V3)
  (net 2 GND)
  (net 3 +12V)
  (net 4 ~CS)
  (net 5 ~RST)
  (net 6 "Net-(J1-Pad3)")
  (net 7 ~DC)
  (net 8 "Net-(J1-Pad5)")
  (net 9 "Net-(J1-Pad6)")
  (net 10 SCK)
  (net 11 MOSI)
  (net 12 "Net-(J1-Pad9)")
  (net 13 "Net-(J1-Pad10)")
  (net 14 "Net-(J1-Pad11)")
  (net 15 "Net-(J1-Pad12)")
  (net 16 "Net-(J1-Pad13)")
  (net 17 "Net-(J1-Pad14)")
  (net 18 "Net-(J1-Pad15)")
  (net 19 EN)
  (net 20 SCK1)
  (net 21 MOSI1)
  (net 22 VCC)
  (net 23 "Net-(D3-Pad2)")
  (net 24 "Net-(R3-Pad2)")
  (net 25 ~CS1)
  (net 26 ~RST1)
  (net 27 ~DC1)
  (net 28 "Net-(U3-Pad7)")
  (net 29 "Net-(U3-Pad8)")
  (net 30 "Net-(U3-Pad9)")
  (net 31 "Net-(U3-Pad11)")
  (net 32 "Net-(U3-Pad12)")
  (net 33 "Net-(U3-Pad13)")

  (net_class Default "This is the default net class."
    (clearance 0.1524)
    (trace_width 0.2032)
    (via_dia 0.3048)
    (via_drill 0.254)
    (uvia_dia 0.2032)
    (uvia_drill 0.1524)
    (add_net +12V)
    (add_net +3V3)
    (add_net EN)
    (add_net GND)
    (add_net MOSI)
    (add_net MOSI1)
    (add_net "Net-(D3-Pad2)")
    (add_net "Net-(J1-Pad10)")
    (add_net "Net-(J1-Pad11)")
    (add_net "Net-(J1-Pad12)")
    (add_net "Net-(J1-Pad13)")
    (add_net "Net-(J1-Pad14)")
    (add_net "Net-(J1-Pad15)")
    (add_net "Net-(J1-Pad3)")
    (add_net "Net-(J1-Pad5)")
    (add_net "Net-(J1-Pad6)")
    (add_net "Net-(J1-Pad9)")
    (add_net "Net-(R3-Pad2)")
    (add_net "Net-(U3-Pad11)")
    (add_net "Net-(U3-Pad12)")
    (add_net "Net-(U3-Pad13)")
    (add_net "Net-(U3-Pad7)")
    (add_net "Net-(U3-Pad8)")
    (add_net "Net-(U3-Pad9)")
    (add_net SCK)
    (add_net SCK1)
    (add_net VCC)
    (add_net ~CS)
    (add_net ~CS1)
    (add_net ~DC)
    (add_net ~DC1)
    (add_net ~RST)
    (add_net ~RST1)
  )

  (module Pin_Headers:Pin_Header_Straight_1x08_Pitch2.54mm (layer B.Cu) (tedit 5A82BD26) (tstamp 5A828724)
    (at 101.6 121.666)
    (descr "Through hole straight pin header, 1x08, 2.54mm pitch, single row")
    (tags "Through hole pin header THT 1x08 2.54mm single row")
    (path /59E9E8A5)
    (fp_text reference J2 (at 0 2.33) (layer B.SilkS) hide
      (effects (font (size 0.5 0.5) (thickness 0.125)) (justify mirror))
    )
    (fp_text value Conn (at 0 -20.11) (layer B.Fab)
      (effects (font (size 0.5 0.5) (thickness 0.125)) (justify mirror))
    )
    (fp_line (start -0.635 1.27) (end 1.27 1.27) (layer B.Fab) (width 0.1))
    (fp_line (start 1.27 1.27) (end 1.27 -19.05) (layer B.Fab) (width 0.1))
    (fp_line (start 1.27 -19.05) (end -1.27 -19.05) (layer B.Fab) (width 0.1))
    (fp_line (start -1.27 -19.05) (end -1.27 0.635) (layer B.Fab) (width 0.1))
    (fp_line (start -1.27 0.635) (end -0.635 1.27) (layer B.Fab) (width 0.1))
    (fp_line (start -1.33 -19.11) (end 1.33 -19.11) (layer B.SilkS) (width 0.12))
    (fp_line (start -1.33 -1.27) (end -1.33 -19.11) (layer B.SilkS) (width 0.12))
    (fp_line (start 1.33 -1.27) (end 1.33 -19.11) (layer B.SilkS) (width 0.12))
    (fp_line (start -1.33 -1.27) (end 1.33 -1.27) (layer B.SilkS) (width 0.12))
    (fp_line (start -1.33 0) (end -1.33 1.33) (layer B.SilkS) (width 0.12))
    (fp_line (start -1.33 1.33) (end 0 1.33) (layer B.SilkS) (width 0.12))
    (fp_line (start -1.8 1.8) (end -1.8 -19.55) (layer B.CrtYd) (width 0.05))
    (fp_line (start -1.8 -19.55) (end 1.8 -19.55) (layer B.CrtYd) (width 0.05))
    (fp_line (start 1.8 -19.55) (end 1.8 1.8) (layer B.CrtYd) (width 0.05))
    (fp_line (start 1.8 1.8) (end -1.8 1.8) (layer B.CrtYd) (width 0.05))
    (fp_text user %R (at 0 -8.89 270) (layer B.Fab)
      (effects (font (size 0.5 0.5) (thickness 0.125)) (justify mirror))
    )
    (pad 1 thru_hole circle (at 0 0) (size 1.7 1.7) (drill 1) (layers *.Cu *.Mask)
      (net 25 ~CS1))
    (pad 2 thru_hole oval (at 0 -2.54) (size 1.7 1.7) (drill 1) (layers *.Cu *.Mask)
      (net 26 ~RST1))
    (pad 3 thru_hole oval (at 0 -5.08) (size 1.7 1.7) (drill 1) (layers *.Cu *.Mask)
      (net 27 ~DC1))
    (pad 4 thru_hole oval (at 0 -7.62) (size 1.7 1.7) (drill 1) (layers *.Cu *.Mask)
      (net 20 SCK1))
    (pad 5 thru_hole oval (at 0 -10.16) (size 1.7 1.7) (drill 1) (layers *.Cu *.Mask)
      (net 21 MOSI1))
    (pad 6 thru_hole rect (at 0 -12.7) (size 1.7 1.7) (drill 1) (layers *.Cu *.Mask)
      (net 22 VCC))
    (pad 7 thru_hole oval (at 0 -15.24) (size 1.7 1.7) (drill 1) (layers *.Cu *.Mask)
      (net 19 EN))
    (pad 8 thru_hole oval (at 0 -17.78) (size 1.7 1.7) (drill 1) (layers *.Cu *.Mask)
      (net 2 GND))
    (model ${KISYS3DMOD}/Pin_Headers.3dshapes/Pin_Header_Straight_1x08_Pitch2.54mm.wrl
      (at (xyz 0 0 0))
      (scale (xyz 1 1 1))
      (rotate (xyz 0 0 0))
    )
  )

  (module Capacitors_SMD:C_0805 (layer F.Cu) (tedit 5A82A11E) (tstamp 5A8286E8)
    (at 108.22 104.14 180)
    (descr "Capacitor SMD 0805, reflow soldering, AVX (see smccp.pdf)")
    (tags "capacitor 0805")
    (path /59E9C919)
    (attr smd)
    (fp_text reference C1 (at 0 0.09 270) (layer F.SilkS)
      (effects (font (size 0.5 0.5) (thickness 0.125)))
    )
    (fp_text value 10uF (at 0 1.75 180) (layer F.Fab)
      (effects (font (size 0.5 0.5) (thickness 0.125)))
    )
    (fp_text user %R (at 0 -1.5 180) (layer F.Fab)
      (effects (font (size 0.5 0.5) (thickness 0.125)))
    )
    (fp_line (start -1 0.62) (end -1 -0.62) (layer F.Fab) (width 0.1))
    (fp_line (start 1 0.62) (end -1 0.62) (layer F.Fab) (width 0.1))
    (fp_line (start 1 -0.62) (end 1 0.62) (layer F.Fab) (width 0.1))
    (fp_line (start -1 -0.62) (end 1 -0.62) (layer F.Fab) (width 0.1))
    (fp_line (start 0.5 -0.85) (end -0.5 -0.85) (layer F.SilkS) (width 0.12))
    (fp_line (start -0.5 0.85) (end 0.5 0.85) (layer F.SilkS) (width 0.12))
    (fp_line (start -1.75 -0.88) (end 1.75 -0.88) (layer F.CrtYd) (width 0.05))
    (fp_line (start -1.75 -0.88) (end -1.75 0.87) (layer F.CrtYd) (width 0.05))
    (fp_line (start 1.75 0.87) (end 1.75 -0.88) (layer F.CrtYd) (width 0.05))
    (fp_line (start 1.75 0.87) (end -1.75 0.87) (layer F.CrtYd) (width 0.05))
    (pad 1 smd rect (at -1 0 180) (size 1 1.25) (layers F.Cu F.Paste F.Mask)
      (net 22 VCC))
    (pad 2 smd rect (at 1 0 180) (size 1 1.25) (layers F.Cu F.Paste F.Mask)
      (net 2 GND))
    (model Capacitors_SMD.3dshapes/C_0805.wrl
      (at (xyz 0 0 0))
      (scale (xyz 1 1 1))
      (rotate (xyz 0 0 0))
    )
  )

  (module Capacitors_SMD:C_0805 (layer F.Cu) (tedit 58AA8463) (tstamp 5A8286EE)
    (at 117.602 108.712 90)
    (descr "Capacitor SMD 0805, reflow soldering, AVX (see smccp.pdf)")
    (tags "capacitor 0805")
    (path /59E9D21A)
    (attr smd)
    (fp_text reference C2 (at -0.016 0 180) (layer F.SilkS)
      (effects (font (size 0.5 0.5) (thickness 0.125)))
    )
    (fp_text value 10uF (at 0 1.75 90) (layer F.Fab)
      (effects (font (size 0.5 0.5) (thickness 0.125)))
    )
    (fp_text user %R (at 0 -1.5 90) (layer F.Fab)
      (effects (font (size 0.5 0.5) (thickness 0.125)))
    )
    (fp_line (start -1 0.62) (end -1 -0.62) (layer F.Fab) (width 0.1))
    (fp_line (start 1 0.62) (end -1 0.62) (layer F.Fab) (width 0.1))
    (fp_line (start 1 -0.62) (end 1 0.62) (layer F.Fab) (width 0.1))
    (fp_line (start -1 -0.62) (end 1 -0.62) (layer F.Fab) (width 0.1))
    (fp_line (start 0.5 -0.85) (end -0.5 -0.85) (layer F.SilkS) (width 0.12))
    (fp_line (start -0.5 0.85) (end 0.5 0.85) (layer F.SilkS) (width 0.12))
    (fp_line (start -1.75 -0.88) (end 1.75 -0.88) (layer F.CrtYd) (width 0.05))
    (fp_line (start -1.75 -0.88) (end -1.75 0.87) (layer F.CrtYd) (width 0.05))
    (fp_line (start 1.75 0.87) (end 1.75 -0.88) (layer F.CrtYd) (width 0.05))
    (fp_line (start 1.75 0.87) (end -1.75 0.87) (layer F.CrtYd) (width 0.05))
    (pad 1 smd rect (at -1 0 90) (size 1 1.25) (layers F.Cu F.Paste F.Mask)
      (net 3 +12V))
    (pad 2 smd rect (at 1 0 90) (size 1 1.25) (layers F.Cu F.Paste F.Mask)
      (net 2 GND))
    (model Capacitors_SMD.3dshapes/C_0805.wrl
      (at (xyz 0 0 0))
      (scale (xyz 1 1 1))
      (rotate (xyz 0 0 0))
    )
  )

  (module Diodes_SMD:D_SOD-123 (layer F.Cu) (tedit 58645DC7) (tstamp 5A828700)
    (at 115.316 108.076 90)
    (descr SOD-123)
    (tags SOD-123)
    (path /59E9CA4F)
    (attr smd)
    (fp_text reference D3 (at 0.001 0.059 90) (layer F.SilkS)
      (effects (font (size 0.5 0.5) (thickness 0.125)))
    )
    (fp_text value D_Schottky_Small_ALT (at 0 2.1 90) (layer F.Fab)
      (effects (font (size 0.5 0.5) (thickness 0.125)))
    )
    (fp_text user %R (at 0 -2 90) (layer F.Fab)
      (effects (font (size 0.5 0.5) (thickness 0.125)))
    )
    (fp_line (start -2.25 -1) (end -2.25 1) (layer F.SilkS) (width 0.12))
    (fp_line (start 0.25 0) (end 0.75 0) (layer F.Fab) (width 0.1))
    (fp_line (start 0.25 0.4) (end -0.35 0) (layer F.Fab) (width 0.1))
    (fp_line (start 0.25 -0.4) (end 0.25 0.4) (layer F.Fab) (width 0.1))
    (fp_line (start -0.35 0) (end 0.25 -0.4) (layer F.Fab) (width 0.1))
    (fp_line (start -0.35 0) (end -0.35 0.55) (layer F.Fab) (width 0.1))
    (fp_line (start -0.35 0) (end -0.35 -0.55) (layer F.Fab) (width 0.1))
    (fp_line (start -0.75 0) (end -0.35 0) (layer F.Fab) (width 0.1))
    (fp_line (start -1.4 0.9) (end -1.4 -0.9) (layer F.Fab) (width 0.1))
    (fp_line (start 1.4 0.9) (end -1.4 0.9) (layer F.Fab) (width 0.1))
    (fp_line (start 1.4 -0.9) (end 1.4 0.9) (layer F.Fab) (width 0.1))
    (fp_line (start -1.4 -0.9) (end 1.4 -0.9) (layer F.Fab) (width 0.1))
    (fp_line (start -2.35 -1.15) (end 2.35 -1.15) (layer F.CrtYd) (width 0.05))
    (fp_line (start 2.35 -1.15) (end 2.35 1.15) (layer F.CrtYd) (width 0.05))
    (fp_line (start 2.35 1.15) (end -2.35 1.15) (layer F.CrtYd) (width 0.05))
    (fp_line (start -2.35 -1.15) (end -2.35 1.15) (layer F.CrtYd) (width 0.05))
    (fp_line (start -2.25 1) (end 1.65 1) (layer F.SilkS) (width 0.12))
    (fp_line (start -2.25 -1) (end 1.65 -1) (layer F.SilkS) (width 0.12))
    (pad 1 smd rect (at -1.65 0 90) (size 0.9 1.2) (layers F.Cu F.Paste F.Mask)
      (net 3 +12V))
    (pad 2 smd rect (at 1.65 0 90) (size 0.9 1.2) (layers F.Cu F.Paste F.Mask)
      (net 23 "Net-(D3-Pad2)"))
    (model ${KISYS3DMOD}/Diodes_SMD.3dshapes/D_SOD-123.wrl
      (at (xyz 0 0 0))
      (scale (xyz 1 1 1))
      (rotate (xyz 0 0 0))
    )
  )

  (module modules:fpc-0.5mm-18 (layer F.Cu) (tedit 5A852D78) (tstamp 5A828718)
    (at 120.325 108.3 90)
    (path /59E9C4BA)
    (fp_text reference J1 (at -3.8 -1.65 90) (layer F.SilkS) hide
      (effects (font (size 0.5 0.5) (thickness 0.125)))
    )
    (fp_text value "OLED FFC 18" (at -3.7 -5.75 90) (layer F.SilkS) hide
      (effects (font (size 0.5 0.5) (thickness 0.125)))
    )
    (fp_circle (center -9.7 -0.95) (end -9.45 -0.7) (layer F.SilkS) (width 0.15))
    (fp_line (start 3.0906 -0.077) (end 0.485139 -0.077) (layer F.SilkS) (width 0.1524))
    (fp_line (start -11.5906 -0.077) (end -11.5906 4.5712) (layer F.SilkS) (width 0.1524))
    (fp_line (start -11.5906 4.5712) (end 3.0906 4.5712) (layer F.SilkS) (width 0.1524))
    (fp_line (start 3.0906 4.5712) (end 3.0906 -0.077) (layer F.SilkS) (width 0.1524))
    (fp_line (start -8.985139 -0.077) (end -11.5906 -0.077) (layer F.SilkS) (width 0.1524))
    (pad 1 smd rect (at -8.5 0 90) (size 0.3 1.3) (layers F.Cu F.Paste F.Mask)
      (net 4 ~CS))
    (pad 2 smd rect (at -8 0 90) (size 0.3 1.3) (layers F.Cu F.Paste F.Mask)
      (net 5 ~RST))
    (pad 3 smd rect (at -7.5 0 90) (size 0.3 1.3) (layers F.Cu F.Paste F.Mask)
      (net 6 "Net-(J1-Pad3)"))
    (pad 4 smd rect (at -7 0 90) (size 0.3 1.3) (layers F.Cu F.Paste F.Mask)
      (net 7 ~DC))
    (pad 5 smd rect (at -6.5 0 90) (size 0.3 1.3) (layers F.Cu F.Paste F.Mask)
      (net 8 "Net-(J1-Pad5)"))
    (pad 6 smd rect (at -6 0 90) (size 0.3 1.3) (layers F.Cu F.Paste F.Mask)
      (net 9 "Net-(J1-Pad6)"))
    (pad 7 smd rect (at -5.5 0 90) (size 0.3 1.3) (layers F.Cu F.Paste F.Mask)
      (net 10 SCK))
    (pad 8 smd rect (at -5 0 90) (size 0.3 1.3) (layers F.Cu F.Paste F.Mask)
      (net 11 MOSI))
    (pad 9 smd rect (at -4.5 0 90) (size 0.3 1.3) (layers F.Cu F.Paste F.Mask)
      (net 12 "Net-(J1-Pad9)"))
    (pad 10 smd rect (at -4 0 90) (size 0.3 1.3) (layers F.Cu F.Paste F.Mask)
      (net 13 "Net-(J1-Pad10)"))
    (pad 11 smd rect (at -3.5 0 90) (size 0.3 1.3) (layers F.Cu F.Paste F.Mask)
      (net 14 "Net-(J1-Pad11)"))
    (pad 12 smd rect (at -3 0 90) (size 0.3 1.3) (layers F.Cu F.Paste F.Mask)
      (net 15 "Net-(J1-Pad12)"))
    (pad 13 smd rect (at -2.5 0 90) (size 0.3 1.3) (layers F.Cu F.Paste F.Mask)
      (net 16 "Net-(J1-Pad13)"))
    (pad 14 smd rect (at -2 0 90) (size 0.3 1.3) (layers F.Cu F.Paste F.Mask)
      (net 17 "Net-(J1-Pad14)"))
    (pad 15 smd rect (at -1.5 0 90) (size 0.3 1.3) (layers F.Cu F.Paste F.Mask)
      (net 18 "Net-(J1-Pad15)"))
    (pad 16 smd rect (at -1 0 90) (size 0.3 1.3) (layers F.Cu F.Paste F.Mask)
      (net 1 +3V3))
    (pad 17 smd rect (at -0.5 0 90) (size 0.3 1.3) (layers F.Cu F.Paste F.Mask)
      (net 3 +12V))
    (pad 18 smd rect (at 0 0 90) (size 0.3 1.3) (layers F.Cu F.Paste F.Mask)
      (net 2 GND))
    (pad 19 smd rect (at 1.65 2.35 90) (size 2 3) (layers F.Cu F.Paste F.Mask)
      (net 2 GND))
    (pad 19 smd rect (at -10.15 2.35 90) (size 2 3) (layers F.Cu F.Paste F.Mask)
      (net 2 GND))
    (model ${KICADLIB}/home/bharanee/work/sploosh/kicad/3d/FFC3B05-18-T.wrl
      (at (xyz -0.1675 -0.15 0))
      (scale (xyz 0.1975 0.1975 0.1975))
      (rotate (xyz 0 0 0))
    )
  )

  (module modules:NR3015T220M (layer F.Cu) (tedit 59EABC1A) (tstamp 5A82872A)
    (at 112.268 107.15)
    (path /59E9CB5F)
    (fp_text reference L1 (at 0.007 -0.075) (layer F.SilkS)
      (effects (font (size 0.5 0.5) (thickness 0.125)))
    )
    (fp_text value 4.7uH (at 2.3 0 90) (layer F.SilkS) hide
      (effects (font (size 0.5 0.5) (thickness 0.125)))
    )
    (fp_text user "Copyright 2016 Accelerated Designs. All rights reserved." (at 0 0) (layer Cmts.User)
      (effects (font (size 0.127 0.127) (thickness 0.002)))
    )
    (fp_line (start -0.657465 1.6764) (end 0.657465 1.6764) (layer F.SilkS) (width 0.1524))
    (fp_line (start 0.657465 -1.6764) (end -0.657465 -1.6764) (layer F.SilkS) (width 0.1524))
    (fp_line (start -1.5494 1.5494) (end 1.5494 1.5494) (layer Dwgs.User) (width 0.1524))
    (fp_line (start 1.5494 1.5494) (end 1.5494 -1.5494) (layer Dwgs.User) (width 0.1524))
    (fp_line (start 1.5494 -1.5494) (end -1.5494 -1.5494) (layer Dwgs.User) (width 0.1524))
    (fp_line (start -1.5494 -1.5494) (end -1.5494 1.5494) (layer Dwgs.User) (width 0.1524))
    (pad 1 smd rect (at -1.09855 0) (size 0.8001 2.6924) (layers F.Cu F.Paste F.Mask)
      (net 22 VCC))
    (pad 2 smd rect (at 1.09855 0) (size 0.8001 2.6924) (layers F.Cu F.Paste F.Mask)
      (net 23 "Net-(D3-Pad2)"))
    (model ../../../../../home/bharanee/work/sploosh/kicad/3d/nr3015.wrl
      (at (xyz 0 0 0))
      (scale (xyz 0.3974 0.3974 0.3974))
      (rotate (xyz 0 0 90))
    )
  )

  (module Resistors_SMD:R_0805 (layer F.Cu) (tedit 58E0A804) (tstamp 5A82873C)
    (at 117.856 103.378 90)
    (descr "Resistor SMD 0805, reflow soldering, Vishay (see dcrcw.pdf)")
    (tags "resistor 0805")
    (path /59E9D07D)
    (attr smd)
    (fp_text reference R3 (at 0 -2.286 180) (layer F.SilkS)
      (effects (font (size 0.5 0.5) (thickness 0.125)))
    )
    (fp_text value 190K (at 0 1.75 90) (layer F.Fab)
      (effects (font (size 0.5 0.5) (thickness 0.125)))
    )
    (fp_text user %R (at 0 0 90) (layer F.Fab)
      (effects (font (size 0.5 0.5) (thickness 0.075)))
    )
    (fp_line (start -1 0.62) (end -1 -0.62) (layer F.Fab) (width 0.1))
    (fp_line (start 1 0.62) (end -1 0.62) (layer F.Fab) (width 0.1))
    (fp_line (start 1 -0.62) (end 1 0.62) (layer F.Fab) (width 0.1))
    (fp_line (start -1 -0.62) (end 1 -0.62) (layer F.Fab) (width 0.1))
    (fp_line (start 0.6 0.88) (end -0.6 0.88) (layer F.SilkS) (width 0.12))
    (fp_line (start -0.6 -0.88) (end 0.6 -0.88) (layer F.SilkS) (width 0.12))
    (fp_line (start -1.55 -0.9) (end 1.55 -0.9) (layer F.CrtYd) (width 0.05))
    (fp_line (start -1.55 -0.9) (end -1.55 0.9) (layer F.CrtYd) (width 0.05))
    (fp_line (start 1.55 0.9) (end 1.55 -0.9) (layer F.CrtYd) (width 0.05))
    (fp_line (start 1.55 0.9) (end -1.55 0.9) (layer F.CrtYd) (width 0.05))
    (pad 1 smd rect (at -0.95 0 90) (size 0.7 1.3) (layers F.Cu F.Paste F.Mask)
      (net 3 +12V))
    (pad 2 smd rect (at 0.95 0 90) (size 0.7 1.3) (layers F.Cu F.Paste F.Mask)
      (net 24 "Net-(R3-Pad2)"))
    (model ${KISYS3DMOD}/Resistors_SMD.3dshapes/R_0805.wrl
      (at (xyz 0 0 0))
      (scale (xyz 1 1 1))
      (rotate (xyz 0 0 0))
    )
  )

  (module Resistors_SMD:R_0805 (layer F.Cu) (tedit 58E0A804) (tstamp 5A828742)
    (at 115.57 103.378 270)
    (descr "Resistor SMD 0805, reflow soldering, Vishay (see dcrcw.pdf)")
    (tags "resistor 0805")
    (path /59E9CEE8)
    (attr smd)
    (fp_text reference R4 (at 0 -2.286 360) (layer F.SilkS)
      (effects (font (size 0.5 0.5) (thickness 0.125)))
    )
    (fp_text value 10K (at 0 1.75 270) (layer F.Fab)
      (effects (font (size 0.5 0.5) (thickness 0.125)))
    )
    (fp_text user %R (at 0 0 270) (layer F.Fab)
      (effects (font (size 0.5 0.5) (thickness 0.075)))
    )
    (fp_line (start -1 0.62) (end -1 -0.62) (layer F.Fab) (width 0.1))
    (fp_line (start 1 0.62) (end -1 0.62) (layer F.Fab) (width 0.1))
    (fp_line (start 1 -0.62) (end 1 0.62) (layer F.Fab) (width 0.1))
    (fp_line (start -1 -0.62) (end 1 -0.62) (layer F.Fab) (width 0.1))
    (fp_line (start 0.6 0.88) (end -0.6 0.88) (layer F.SilkS) (width 0.12))
    (fp_line (start -0.6 -0.88) (end 0.6 -0.88) (layer F.SilkS) (width 0.12))
    (fp_line (start -1.55 -0.9) (end 1.55 -0.9) (layer F.CrtYd) (width 0.05))
    (fp_line (start -1.55 -0.9) (end -1.55 0.9) (layer F.CrtYd) (width 0.05))
    (fp_line (start 1.55 0.9) (end 1.55 -0.9) (layer F.CrtYd) (width 0.05))
    (fp_line (start 1.55 0.9) (end -1.55 0.9) (layer F.CrtYd) (width 0.05))
    (pad 1 smd rect (at -0.95 0 270) (size 0.7 1.3) (layers F.Cu F.Paste F.Mask)
      (net 24 "Net-(R3-Pad2)"))
    (pad 2 smd rect (at 0.95 0 270) (size 0.7 1.3) (layers F.Cu F.Paste F.Mask)
      (net 2 GND))
    (model ${KISYS3DMOD}/Resistors_SMD.3dshapes/R_0805.wrl
      (at (xyz 0 0 0))
      (scale (xyz 1 1 1))
      (rotate (xyz 0 0 0))
    )
  )

  (module TO_SOT_Packages_SMD:SOT-23 (layer F.Cu) (tedit 58CE4E7E) (tstamp 5A828755)
    (at 105.85 108.7 90)
    (descr "SOT-23, Standard")
    (tags SOT-23)
    (path /5A825BB3)
    (attr smd)
    (fp_text reference U1 (at -0.075 0.075 180) (layer F.SilkS)
      (effects (font (size 0.5 0.5) (thickness 0.125)))
    )
    (fp_text value XC6206P332MR (at 0 2.5 90) (layer F.Fab)
      (effects (font (size 0.5 0.5) (thickness 0.125)))
    )
    (fp_text user %R (at 0 0 180) (layer F.Fab)
      (effects (font (size 0.5 0.5) (thickness 0.075)))
    )
    (fp_line (start -0.7 -0.95) (end -0.7 1.5) (layer F.Fab) (width 0.1))
    (fp_line (start -0.15 -1.52) (end 0.7 -1.52) (layer F.Fab) (width 0.1))
    (fp_line (start -0.7 -0.95) (end -0.15 -1.52) (layer F.Fab) (width 0.1))
    (fp_line (start 0.7 -1.52) (end 0.7 1.52) (layer F.Fab) (width 0.1))
    (fp_line (start -0.7 1.52) (end 0.7 1.52) (layer F.Fab) (width 0.1))
    (fp_line (start 0.76 1.58) (end 0.76 0.65) (layer F.SilkS) (width 0.12))
    (fp_line (start 0.76 -1.58) (end 0.76 -0.65) (layer F.SilkS) (width 0.12))
    (fp_line (start -1.7 -1.75) (end 1.7 -1.75) (layer F.CrtYd) (width 0.05))
    (fp_line (start 1.7 -1.75) (end 1.7 1.75) (layer F.CrtYd) (width 0.05))
    (fp_line (start 1.7 1.75) (end -1.7 1.75) (layer F.CrtYd) (width 0.05))
    (fp_line (start -1.7 1.75) (end -1.7 -1.75) (layer F.CrtYd) (width 0.05))
    (fp_line (start 0.76 -1.58) (end -1.4 -1.58) (layer F.SilkS) (width 0.12))
    (fp_line (start 0.76 1.58) (end -0.7 1.58) (layer F.SilkS) (width 0.12))
    (pad 1 smd rect (at -1 -0.95 90) (size 0.9 0.8) (layers F.Cu F.Paste F.Mask)
      (net 2 GND))
    (pad 2 smd rect (at -1 0.95 90) (size 0.9 0.8) (layers F.Cu F.Paste F.Mask)
      (net 1 +3V3))
    (pad 3 smd rect (at 1 0 90) (size 0.9 0.8) (layers F.Cu F.Paste F.Mask)
      (net 22 VCC))
    (model ${KISYS3DMOD}/TO_SOT_Packages_SMD.3dshapes/SOT-23.wrl
      (at (xyz 0 0 0))
      (scale (xyz 1 1 1))
      (rotate (xyz 0 0 0))
    )
  )

  (module TO_SOT_Packages_SMD:SOT-23-6 (layer F.Cu) (tedit 5A852D9A) (tstamp 5A82875F)
    (at 112.268 103.632 180)
    (descr "6-pin SOT-23 package")
    (tags SOT-23-6)
    (path /59E9C74D)
    (attr smd)
    (fp_text reference U2 (at 0 -2.9 180) (layer F.SilkS) hide
      (effects (font (size 0.5 0.5) (thickness 0.125)))
    )
    (fp_text value MT3608 (at 0 2.9 180) (layer F.Fab)
      (effects (font (size 0.5 0.5) (thickness 0.125)))
    )
    (fp_text user %R (at 0 0 270) (layer F.Fab)
      (effects (font (size 0.5 0.5) (thickness 0.075)))
    )
    (fp_line (start -0.9 1.61) (end 0.9 1.61) (layer F.SilkS) (width 0.12))
    (fp_line (start 0.9 -1.61) (end -1.55 -1.61) (layer F.SilkS) (width 0.12))
    (fp_line (start 1.9 -1.8) (end -1.9 -1.8) (layer F.CrtYd) (width 0.05))
    (fp_line (start 1.9 1.8) (end 1.9 -1.8) (layer F.CrtYd) (width 0.05))
    (fp_line (start -1.9 1.8) (end 1.9 1.8) (layer F.CrtYd) (width 0.05))
    (fp_line (start -1.9 -1.8) (end -1.9 1.8) (layer F.CrtYd) (width 0.05))
    (fp_line (start -0.9 -0.9) (end -0.25 -1.55) (layer F.Fab) (width 0.1))
    (fp_line (start 0.9 -1.55) (end -0.25 -1.55) (layer F.Fab) (width 0.1))
    (fp_line (start -0.9 -0.9) (end -0.9 1.55) (layer F.Fab) (width 0.1))
    (fp_line (start 0.9 1.55) (end -0.9 1.55) (layer F.Fab) (width 0.1))
    (fp_line (start 0.9 -1.55) (end 0.9 1.55) (layer F.Fab) (width 0.1))
    (pad 1 smd rect (at -1.1 -0.95 180) (size 1.06 0.65) (layers F.Cu F.Paste F.Mask)
      (net 23 "Net-(D3-Pad2)"))
    (pad 2 smd rect (at -1.1 0 180) (size 1.06 0.65) (layers F.Cu F.Paste F.Mask)
      (net 2 GND))
    (pad 3 smd rect (at -1.1 0.95 180) (size 1.06 0.65) (layers F.Cu F.Paste F.Mask)
      (net 24 "Net-(R3-Pad2)"))
    (pad 4 smd rect (at 1.1 0.95 180) (size 1.06 0.65) (layers F.Cu F.Paste F.Mask)
      (net 19 EN))
    (pad 6 smd rect (at 1.1 -0.95 180) (size 1.06 0.65) (layers F.Cu F.Paste F.Mask)
      (net 22 VCC))
    (pad 5 smd rect (at 1.1 0 180) (size 1.06 0.65) (layers F.Cu F.Paste F.Mask)
      (net 22 VCC))
    (model ${KISYS3DMOD}/TO_SOT_Packages_SMD.3dshapes/SOT-23-6.wrl
      (at (xyz 0 0 0))
      (scale (xyz 1 1 1))
      (rotate (xyz 0 0 0))
    )
  )

  (module Housings_SSOP:SSOP-20_5.3x7.2mm_Pitch0.65mm (layer F.Cu) (tedit 54130A77) (tstamp 5A82BC03)
    (at 110.75 115)
    (descr "20-Lead Plastic Shrink Small Outline (SS)-5.30 mm Body [SSOP] (see Microchip Packaging Specification 00000049BS.pdf)")
    (tags "SSOP 0.65")
    (path /5A82AEE7)
    (attr smd)
    (fp_text reference U3 (at -0.025 -0.1) (layer F.SilkS)
      (effects (font (size 1 1) (thickness 0.15)))
    )
    (fp_text value 74LVC245 (at 0 4.75) (layer F.Fab)
      (effects (font (size 1 1) (thickness 0.15)))
    )
    (fp_line (start -1.65 -3.6) (end 2.65 -3.6) (layer F.Fab) (width 0.15))
    (fp_line (start 2.65 -3.6) (end 2.65 3.6) (layer F.Fab) (width 0.15))
    (fp_line (start 2.65 3.6) (end -2.65 3.6) (layer F.Fab) (width 0.15))
    (fp_line (start -2.65 3.6) (end -2.65 -2.6) (layer F.Fab) (width 0.15))
    (fp_line (start -2.65 -2.6) (end -1.65 -3.6) (layer F.Fab) (width 0.15))
    (fp_line (start -4.75 -4) (end -4.75 4) (layer F.CrtYd) (width 0.05))
    (fp_line (start 4.75 -4) (end 4.75 4) (layer F.CrtYd) (width 0.05))
    (fp_line (start -4.75 -4) (end 4.75 -4) (layer F.CrtYd) (width 0.05))
    (fp_line (start -4.75 4) (end 4.75 4) (layer F.CrtYd) (width 0.05))
    (fp_line (start -2.875 -3.825) (end -2.875 -3.475) (layer F.SilkS) (width 0.15))
    (fp_line (start 2.875 -3.825) (end 2.875 -3.375) (layer F.SilkS) (width 0.15))
    (fp_line (start 2.875 3.825) (end 2.875 3.375) (layer F.SilkS) (width 0.15))
    (fp_line (start -2.875 3.825) (end -2.875 3.375) (layer F.SilkS) (width 0.15))
    (fp_line (start -2.875 -3.825) (end 2.875 -3.825) (layer F.SilkS) (width 0.15))
    (fp_line (start -2.875 3.825) (end 2.875 3.825) (layer F.SilkS) (width 0.15))
    (fp_line (start -2.875 -3.475) (end -4.475 -3.475) (layer F.SilkS) (width 0.15))
    (fp_text user %R (at 0 0) (layer F.Fab)
      (effects (font (size 0.8 0.8) (thickness 0.15)))
    )
    (pad 1 smd rect (at -3.6 -2.925) (size 1.75 0.45) (layers F.Cu F.Paste F.Mask)
      (net 1 +3V3))
    (pad 2 smd rect (at -3.6 -2.275) (size 1.75 0.45) (layers F.Cu F.Paste F.Mask)
      (net 21 MOSI1))
    (pad 3 smd rect (at -3.6 -1.625) (size 1.75 0.45) (layers F.Cu F.Paste F.Mask)
      (net 20 SCK1))
    (pad 4 smd rect (at -3.6 -0.975) (size 1.75 0.45) (layers F.Cu F.Paste F.Mask)
      (net 27 ~DC1))
    (pad 5 smd rect (at -3.6 -0.325) (size 1.75 0.45) (layers F.Cu F.Paste F.Mask)
      (net 26 ~RST1))
    (pad 6 smd rect (at -3.6 0.325) (size 1.75 0.45) (layers F.Cu F.Paste F.Mask)
      (net 25 ~CS1))
    (pad 7 smd rect (at -3.6 0.975) (size 1.75 0.45) (layers F.Cu F.Paste F.Mask)
      (net 28 "Net-(U3-Pad7)"))
    (pad 8 smd rect (at -3.6 1.625) (size 1.75 0.45) (layers F.Cu F.Paste F.Mask)
      (net 29 "Net-(U3-Pad8)"))
    (pad 9 smd rect (at -3.6 2.275) (size 1.75 0.45) (layers F.Cu F.Paste F.Mask)
      (net 30 "Net-(U3-Pad9)"))
    (pad 10 smd rect (at -3.6 2.925) (size 1.75 0.45) (layers F.Cu F.Paste F.Mask)
      (net 2 GND))
    (pad 11 smd rect (at 3.6 2.925) (size 1.75 0.45) (layers F.Cu F.Paste F.Mask)
      (net 31 "Net-(U3-Pad11)"))
    (pad 12 smd rect (at 3.6 2.275) (size 1.75 0.45) (layers F.Cu F.Paste F.Mask)
      (net 32 "Net-(U3-Pad12)"))
    (pad 13 smd rect (at 3.6 1.625) (size 1.75 0.45) (layers F.Cu F.Paste F.Mask)
      (net 33 "Net-(U3-Pad13)"))
    (pad 14 smd rect (at 3.6 0.975) (size 1.75 0.45) (layers F.Cu F.Paste F.Mask)
      (net 4 ~CS))
    (pad 15 smd rect (at 3.6 0.325) (size 1.75 0.45) (layers F.Cu F.Paste F.Mask)
      (net 5 ~RST))
    (pad 16 smd rect (at 3.6 -0.325) (size 1.75 0.45) (layers F.Cu F.Paste F.Mask)
      (net 7 ~DC))
    (pad 17 smd rect (at 3.6 -0.975) (size 1.75 0.45) (layers F.Cu F.Paste F.Mask)
      (net 10 SCK))
    (pad 18 smd rect (at 3.6 -1.625) (size 1.75 0.45) (layers F.Cu F.Paste F.Mask)
      (net 11 MOSI))
    (pad 19 smd rect (at 3.6 -2.275) (size 1.75 0.45) (layers F.Cu F.Paste F.Mask)
      (net 2 GND))
    (pad 20 smd rect (at 3.6 -2.925) (size 1.75 0.45) (layers F.Cu F.Paste F.Mask)
      (net 1 +3V3))
    (model ${KISYS3DMOD}/Housings_SSOP.3dshapes/SSOP-20_5.3x7.2mm_Pitch0.65mm.wrl
      (at (xyz 0 0 0))
      (scale (xyz 1 1 1))
      (rotate (xyz 0 0 0))
    )
  )

  (module Capacitors_SMD:C_0402_NoSilk (layer F.Cu) (tedit 5A8370FF) (tstamp 5A8370FF)
    (at 103.675 109.15 270)
    (descr "Capacitor SMD 0402, reflow soldering, AVX (see smccp.pdf)")
    (tags "capacitor 0402")
    (path /5A837130)
    (attr smd)
    (fp_text reference C3 (at 1.625 0.05 360) (layer F.SilkS)
      (effects (font (size 0.5 0.5) (thickness 0.125)))
    )
    (fp_text value 10uF (at 0 1.27 270) (layer F.Fab)
      (effects (font (size 1 1) (thickness 0.15)))
    )
    (fp_text user %R (at 0 -1.27 270) (layer F.Fab)
      (effects (font (size 1 1) (thickness 0.15)))
    )
    (fp_line (start -0.5 0.25) (end -0.5 -0.25) (layer F.Fab) (width 0.1))
    (fp_line (start 0.5 0.25) (end -0.5 0.25) (layer F.Fab) (width 0.1))
    (fp_line (start 0.5 -0.25) (end 0.5 0.25) (layer F.Fab) (width 0.1))
    (fp_line (start -0.5 -0.25) (end 0.5 -0.25) (layer F.Fab) (width 0.1))
    (fp_line (start -1 -0.4) (end 1 -0.4) (layer F.CrtYd) (width 0.05))
    (fp_line (start -1 -0.4) (end -1 0.4) (layer F.CrtYd) (width 0.05))
    (fp_line (start 1 0.4) (end 1 -0.4) (layer F.CrtYd) (width 0.05))
    (fp_line (start 1 0.4) (end -1 0.4) (layer F.CrtYd) (width 0.05))
    (pad 1 smd rect (at -0.55 0 270) (size 0.6 0.5) (layers F.Cu F.Paste F.Mask)
      (net 22 VCC))
    (pad 2 smd rect (at 0.55 0 270) (size 0.6 0.5) (layers F.Cu F.Paste F.Mask)
      (net 2 GND))
    (model Capacitors_SMD.3dshapes/C_0402.wrl
      (at (xyz 0 0 0))
      (scale (xyz 1 1 1))
      (rotate (xyz 0 0 0))
    )
  )

  (module Capacitors_SMD:C_0402_NoSilk (layer F.Cu) (tedit 5A83710A) (tstamp 5A837105)
    (at 105.4 110.925 180)
    (descr "Capacitor SMD 0402, reflow soldering, AVX (see smccp.pdf)")
    (tags "capacitor 0402")
    (path /5A837326)
    (attr smd)
    (fp_text reference C4 (at 0 -0.95 180) (layer F.SilkS)
      (effects (font (size 0.5 0.5) (thickness 0.125)))
    )
    (fp_text value 10uF (at 0 1.27 180) (layer F.Fab)
      (effects (font (size 1 1) (thickness 0.15)))
    )
    (fp_text user %R (at 0 -1.27 180) (layer F.Fab)
      (effects (font (size 1 1) (thickness 0.15)))
    )
    (fp_line (start -0.5 0.25) (end -0.5 -0.25) (layer F.Fab) (width 0.1))
    (fp_line (start 0.5 0.25) (end -0.5 0.25) (layer F.Fab) (width 0.1))
    (fp_line (start 0.5 -0.25) (end 0.5 0.25) (layer F.Fab) (width 0.1))
    (fp_line (start -0.5 -0.25) (end 0.5 -0.25) (layer F.Fab) (width 0.1))
    (fp_line (start -1 -0.4) (end 1 -0.4) (layer F.CrtYd) (width 0.05))
    (fp_line (start -1 -0.4) (end -1 0.4) (layer F.CrtYd) (width 0.05))
    (fp_line (start 1 0.4) (end 1 -0.4) (layer F.CrtYd) (width 0.05))
    (fp_line (start 1 0.4) (end -1 0.4) (layer F.CrtYd) (width 0.05))
    (pad 1 smd rect (at -0.55 0 180) (size 0.6 0.5) (layers F.Cu F.Paste F.Mask)
      (net 1 +3V3))
    (pad 2 smd rect (at 0.55 0 180) (size 0.6 0.5) (layers F.Cu F.Paste F.Mask)
      (net 2 GND))
    (model Capacitors_SMD.3dshapes/C_0402.wrl
      (at (xyz 0 0 0))
      (scale (xyz 1 1 1))
      (rotate (xyz 0 0 0))
    )
  )

  (gr_line (start 125 125) (end 125 100) (angle 90) (layer Edge.Cuts) (width 0.15) (tstamp 5A82C1AC))
  (gr_line (start 100 125) (end 100 100) (angle 90) (layer Edge.Cuts) (width 0.15))
  (gr_line (start 125 125) (end 100 125) (angle 90) (layer Edge.Cuts) (width 0.15))
  (gr_line (start 100 100) (end 125 100) (angle 90) (layer Edge.Cuts) (width 0.15))

  (segment (start 119.55 109.3) (end 120.325 109.3) (width 0.254) (layer F.Cu) (net 1))
  (segment (start 119.225 109.3) (end 119.55 109.3) (width 0.3048) (layer F.Cu) (net 1))
  (segment (start 118.9 109.625) (end 119.225 109.3) (width 0.3048) (layer F.Cu) (net 1))
  (segment (start 118.9 110.85) (end 118.9 109.625) (width 0.3048) (layer F.Cu) (net 1))
  (segment (start 117.675 112.075) (end 118.9 110.85) (width 0.3048) (layer F.Cu) (net 1))
  (segment (start 114.35 112.075) (end 117.675 112.075) (width 0.3048) (layer F.Cu) (net 1))
  (segment (start 105.95 110.925) (end 106.7 110.925) (width 0.4064) (layer F.Cu) (net 1))
  (segment (start 106.7 110.925) (end 106.8 111.025) (width 0.4064) (layer F.Cu) (net 1))
  (segment (start 106.8 109.7) (end 106.8 111.025) (width 0.508) (layer F.Cu) (net 1))
  (segment (start 106.8 111.025) (end 106.8 112.011262) (width 0.508) (layer F.Cu) (net 1))
  (segment (start 107.15 112.075) (end 108.331983 110.893017) (width 0.508) (layer F.Cu) (net 1))
  (segment (start 108.331983 110.893017) (end 113.168017 110.893017) (width 0.508) (layer F.Cu) (net 1))
  (segment (start 113.168017 110.893017) (end 114.35 112.075) (width 0.508) (layer F.Cu) (net 1))
  (segment (start 106.8 112.011262) (end 106.850346 112.061608) (width 0.508) (layer F.Cu) (net 1))
  (segment (start 106.850346 112.061608) (end 107.136608 112.061608) (width 0.508) (layer F.Cu) (net 1))
  (segment (start 107.136608 112.061608) (end 107.15 112.075) (width 0.508) (layer F.Cu) (net 1))
  (segment (start 117.602 107.712) (end 115.38074 107.712) (width 0.4064) (layer F.Cu) (net 2))
  (segment (start 115.38074 107.712) (end 113.49274 109.6) (width 0.4064) (layer F.Cu) (net 2))
  (segment (start 113.49274 109.6) (end 108.55 109.6) (width 0.4064) (layer F.Cu) (net 2))
  (segment (start 108.55 109.6) (end 107.65 108.7) (width 0.4064) (layer F.Cu) (net 2))
  (segment (start 107.65 108.7) (end 105.0436 108.7) (width 0.4064) (layer F.Cu) (net 2))
  (segment (start 105.0436 108.7) (end 104.9 108.8436) (width 0.4064) (layer F.Cu) (net 2))
  (segment (start 104.9 108.8436) (end 104.9 109.7) (width 0.4064) (layer F.Cu) (net 2))
  (segment (start 104.9 109.7) (end 104.84146 109.75854) (width 0.4064) (layer F.Cu) (net 2))
  (segment (start 104.84146 110.91646) (end 104.85 110.925) (width 0.4064) (layer F.Cu) (net 2))
  (segment (start 104.84146 109.75854) (end 104.84146 110.91646) (width 0.4064) (layer F.Cu) (net 2))
  (segment (start 104.9 109.7) (end 103.675 109.7) (width 0.4064) (layer F.Cu) (net 2))
  (segment (start 111.325 116.975) (end 110.375 117.925) (width 0.4064) (layer F.Cu) (net 2))
  (segment (start 110.375 117.925) (end 107.15 117.925) (width 0.4064) (layer F.Cu) (net 2))
  (segment (start 111.325 112.725) (end 111.325 116.975) (width 0.4064) (layer F.Cu) (net 2))
  (segment (start 114.35 112.725) (end 111.325 112.725) (width 0.4064) (layer F.Cu) (net 2))
  (segment (start 113.368 103.632) (end 112.4316 103.632) (width 0.4064) (layer F.Cu) (net 2))
  (segment (start 112.4316 103.632) (end 112.274486 103.474886) (width 0.4064) (layer F.Cu) (net 2))
  (segment (start 112.274486 103.474886) (end 112.274486 101.275514) (width 0.4064) (layer F.Cu) (net 2))
  (segment (start 112.274486 101.275514) (end 112.35 101.2) (width 0.4064) (layer F.Cu) (net 2))
  (segment (start 120.325 108.3) (end 122.279 108.3) (width 0.254) (layer F.Cu) (net 2))
  (segment (start 122.279 108.3) (end 122.675 107.904) (width 0.254) (layer F.Cu) (net 2))
  (segment (start 122.675 107.904) (end 122.675 106.65) (width 0.254) (layer F.Cu) (net 2))
  (segment (start 113.368 103.632) (end 114.874 103.632) (width 0.508) (layer F.Cu) (net 2))
  (segment (start 114.874 103.632) (end 115.57 104.328) (width 0.508) (layer F.Cu) (net 2))
  (segment (start 117.1 105.4) (end 117.602 105.902) (width 0.508) (layer F.Cu) (net 2))
  (segment (start 117.602 105.902) (end 117.602 107.712) (width 0.508) (layer F.Cu) (net 2))
  (segment (start 116.4 105.4) (end 117.1 105.4) (width 0.508) (layer F.Cu) (net 2))
  (segment (start 115.57 104.57) (end 116.4 105.4) (width 0.508) (layer F.Cu) (net 2))
  (segment (start 115.57 104.328) (end 115.57 104.57) (width 0.508) (layer F.Cu) (net 2))
  (segment (start 118.892562 108.692562) (end 118.86533 108.719794) (width 0.3048) (layer F.Cu) (net 3))
  (segment (start 118.86533 108.719794) (end 118.86533 108.784728) (width 0.3048) (layer F.Cu) (net 3))
  (segment (start 118.86533 108.784728) (end 118.880602 108.8) (width 0.3048) (layer F.Cu) (net 3))
  (segment (start 118.880602 108.8) (end 119.65 108.8) (width 0.3048) (layer F.Cu) (net 3))
  (segment (start 117.602 109.712) (end 117.602 108.8056) (width 0.4064) (layer F.Cu) (net 3))
  (segment (start 117.602 108.8056) (end 117.65499 108.75261) (width 0.4064) (layer F.Cu) (net 3))
  (segment (start 117.65499 108.75261) (end 118.832514 108.75261) (width 0.4064) (layer F.Cu) (net 3))
  (segment (start 118.832514 108.75261) (end 118.892562 108.692562) (width 0.4064) (layer F.Cu) (net 3))
  (segment (start 119.65 108.8) (end 120.325 108.8) (width 0.254) (layer F.Cu) (net 3))
  (segment (start 117.856 104.932) (end 117.856 104.328) (width 0.4064) (layer F.Cu) (net 3))
  (segment (start 118.892562 106.183438) (end 118.892562 105.968562) (width 0.4064) (layer F.Cu) (net 3))
  (segment (start 118.892562 105.968562) (end 117.856 104.932) (width 0.4064) (layer F.Cu) (net 3))
  (segment (start 118.892562 108.692562) (end 118.892562 106.183438) (width 0.4064) (layer F.Cu) (net 3))
  (segment (start 115.316 109.726) (end 117.588 109.726) (width 0.4064) (layer F.Cu) (net 3))
  (segment (start 117.588 109.726) (end 117.602 109.712) (width 0.4064) (layer F.Cu) (net 3))
  (segment (start 120.325 116.8) (end 119.483993 116.8) (width 0.254) (layer F.Cu) (net 4))
  (segment (start 119.483993 116.8) (end 119.483124 116.800869) (width 0.254) (layer F.Cu) (net 4))
  (segment (start 114.35 115.975) (end 117.23357 115.975) (width 0.3048) (layer F.Cu) (net 4))
  (segment (start 117.23357 115.975) (end 118.059439 116.800869) (width 0.3048) (layer F.Cu) (net 4))
  (segment (start 118.059439 116.800869) (end 119.483124 116.800869) (width 0.3048) (layer F.Cu) (net 4))
  (segment (start 118.86159 116.3) (end 120.325 116.3) (width 0.3048) (layer F.Cu) (net 5))
  (segment (start 114.35 115.325) (end 117.88659 115.325) (width 0.3048) (layer F.Cu) (net 5))
  (segment (start 117.88659 115.325) (end 118.86159 116.3) (width 0.3048) (layer F.Cu) (net 5))
  (segment (start 119.421 116.3) (end 120.325 116.3) (width 0.254) (layer F.Cu) (net 5))
  (segment (start 119.6 115.3) (end 120.325 115.3) (width 0.3048) (layer F.Cu) (net 7))
  (segment (start 119.081725 115.3) (end 119.6 115.3) (width 0.3048) (layer F.Cu) (net 7))
  (segment (start 118.456725 114.675) (end 119.081725 115.3) (width 0.3048) (layer F.Cu) (net 7))
  (segment (start 114.35 114.675) (end 118.456725 114.675) (width 0.3048) (layer F.Cu) (net 7))
  (segment (start 119.421 115.3) (end 120.325 115.3) (width 0.254) (layer F.Cu) (net 7))
  (segment (start 118.779082 113.8) (end 119.421 113.8) (width 0.3048) (layer F.Cu) (net 10))
  (segment (start 118.554082 114.025) (end 118.779082 113.8) (width 0.3048) (layer F.Cu) (net 10))
  (segment (start 114.35 114.025) (end 118.554082 114.025) (width 0.3048) (layer F.Cu) (net 10))
  (segment (start 119.421 113.8) (end 120.325 113.8) (width 0.254) (layer F.Cu) (net 10))
  (segment (start 120.325 113.3) (end 119.375776 113.3) (width 0.254) (layer F.Cu) (net 11))
  (segment (start 119.375776 113.3) (end 119.368983 113.293207) (width 0.254) (layer F.Cu) (net 11))
  (segment (start 114.35 113.375) (end 115.6314 113.375) (width 0.3048) (layer F.Cu) (net 11))
  (segment (start 115.6314 113.375) (end 116.077335 112.929065) (width 0.3048) (layer F.Cu) (net 11))
  (segment (start 116.077335 112.929065) (end 118.477701 112.929065) (width 0.3048) (layer F.Cu) (net 11))
  (segment (start 118.477701 112.929065) (end 118.841843 113.293207) (width 0.3048) (layer F.Cu) (net 11))
  (segment (start 118.841843 113.293207) (end 119.368983 113.293207) (width 0.3048) (layer F.Cu) (net 11))
  (segment (start 114.322079 113.368578) (end 114.390657 113.3) (width 0.254) (layer F.Cu) (net 11))
  (segment (start 111.168 102.682) (end 108.436346 102.682) (width 0.4064) (layer F.Cu) (net 19))
  (segment (start 108.436346 102.682) (end 108.2 102.918346) (width 0.4064) (layer F.Cu) (net 19))
  (segment (start 108.2 102.918346) (end 108.2 105.85) (width 0.4064) (layer F.Cu) (net 19))
  (segment (start 107.624 106.426) (end 108.2 105.85) (width 0.4064) (layer F.Cu) (net 19))
  (segment (start 101.6 106.426) (end 107.624 106.426) (width 0.4064) (layer F.Cu) (net 19))
  (segment (start 107.624 106.426) (end 107.625 106.425) (width 0.4064) (layer F.Cu) (net 19))
  (segment (start 107.625 106.425) (end 108.2 105.85) (width 0.2032) (layer F.Cu) (net 19))
  (segment (start 101.6 114.046) (end 103.629236 114.046) (width 0.4064) (layer F.Cu) (net 20))
  (segment (start 106.021 113.375) (end 107.15 113.375) (width 0.4064) (layer F.Cu) (net 20))
  (segment (start 104.300236 113.375) (end 106.021 113.375) (width 0.4064) (layer F.Cu) (net 20))
  (segment (start 103.629236 114.046) (end 104.300236 113.375) (width 0.4064) (layer F.Cu) (net 20))
  (segment (start 101.6 114.046) (end 101.619471 114.065471) (width 0.508) (layer F.Cu) (net 20))
  (segment (start 101.6 111.506) (end 103.155636 111.506) (width 0.4064) (layer F.Cu) (net 21))
  (segment (start 103.155636 111.506) (end 104.374636 112.725) (width 0.4064) (layer F.Cu) (net 21))
  (segment (start 104.374636 112.725) (end 105.8686 112.725) (width 0.4064) (layer F.Cu) (net 21))
  (segment (start 105.8686 112.725) (end 107.15 112.725) (width 0.4064) (layer F.Cu) (net 21))
  (segment (start 101.6 111.506) (end 101.618152 111.524152) (width 0.508) (layer F.Cu) (net 21))
  (segment (start 101.618152 111.524152) (end 101.971957 111.524152) (width 0.508) (layer F.Cu) (net 21))
  (segment (start 111.168 104.582) (end 111.168 103.632) (width 0.4064) (layer F.Cu) (net 22))
  (segment (start 103.675 108.6) (end 103.675 107.725) (width 0.4064) (layer F.Cu) (net 22))
  (segment (start 103.675 107.725) (end 103.65 107.7) (width 0.4064) (layer F.Cu) (net 22))
  (segment (start 102.866 107.7) (end 103.65 107.7) (width 0.508) (layer F.Cu) (net 22))
  (segment (start 103.65 107.7) (end 105.85 107.7) (width 0.508) (layer F.Cu) (net 22))
  (segment (start 105.85 107.7) (end 110.91145 107.7) (width 0.508) (layer F.Cu) (net 22))
  (segment (start 110.91145 107.7) (end 111.16945 107.442) (width 0.508) (layer F.Cu) (net 22))
  (segment (start 101.6 108.966) (end 102.866 107.7) (width 0.508) (layer F.Cu) (net 22))
  (segment (start 101.6 108.966) (end 101.812501 108.753499) (width 0.508) (layer F.Cu) (net 22))
  (segment (start 104.6 118.666) (end 104.6 116.746) (width 0.4064) (layer F.Cu) (net 25))
  (segment (start 101.6 121.666) (end 104.6 118.666) (width 0.4064) (layer F.Cu) (net 25))
  (segment (start 106.021 115.325) (end 107.15 115.325) (width 0.4064) (layer F.Cu) (net 25))
  (segment (start 104.6 116.746) (end 106.021 115.325) (width 0.4064) (layer F.Cu) (net 25))
  (segment (start 101.6 121.666) (end 101.61497 121.68097) (width 0.508) (layer F.Cu) (net 25))
  (segment (start 101.6 119.126) (end 101.6 118.627121) (width 0.254) (layer F.Cu) (net 26))
  (segment (start 101.6 118.627121) (end 105.552121 114.675) (width 0.4064) (layer F.Cu) (net 26))
  (segment (start 105.552121 114.675) (end 107.15 114.675) (width 0.4064) (layer F.Cu) (net 26))
  (segment (start 101.6 119.126) (end 101.783409 119.126) (width 0.508) (layer F.Cu) (net 26))
  (segment (start 101.6 116.586) (end 101.726652 116.459348) (width 0.254) (layer F.Cu) (net 27))
  (segment (start 101.726652 116.459348) (end 102.500064 116.459348) (width 0.4064) (layer F.Cu) (net 27))
  (segment (start 104.934412 114.025) (end 107.15 114.025) (width 0.4064) (layer F.Cu) (net 27))
  (segment (start 102.500064 116.459348) (end 104.934412 114.025) (width 0.4064) (layer F.Cu) (net 27))

  (zone (net 23) (net_name "Net-(D3-Pad2)") (layer F.Cu) (tstamp 0) (hatch edge 0.508)
    (connect_pads yes (clearance 0.01))
    (min_thickness 0.0254)
    (fill yes (arc_segments 32) (thermal_gap 0.254) (thermal_bridge_width 0.508))
    (polygon
      (pts
        (xy 112.85 104.25) (xy 112.85 108.55) (xy 113.75 108.55) (xy 113.75 107.1) (xy 116.1 107.1)
        (xy 116.1 105.8) (xy 114 105.8) (xy 114 104.25)
      )
    )
    (filled_polygon
      (pts
        (xy 113.9873 105.8) (xy 113.987803 105.803538) (xy 113.989271 105.806796) (xy 113.99159 105.809516) (xy 113.994574 105.811482)
        (xy 113.997987 105.81254) (xy 114 105.8127) (xy 116.0873 105.8127) (xy 116.0873 107.0873) (xy 113.75 107.0873)
        (xy 113.746462 107.087803) (xy 113.743204 107.089271) (xy 113.740484 107.09159) (xy 113.738518 107.094574) (xy 113.73746 107.097987)
        (xy 113.7373 107.1) (xy 113.7373 108.5373) (xy 112.8627 108.5373) (xy 112.8627 104.2627) (xy 113.9873 104.2627)
      )
    )
  )
  (zone (net 22) (net_name VCC) (layer F.Cu) (tstamp 0) (hatch edge 0.508)
    (connect_pads yes (clearance 0.0254))
    (min_thickness 0.0254)
    (fill yes (arc_segments 16) (thermal_gap 0.254) (thermal_bridge_width 0.508))
    (polygon
      (pts
        (xy 108.7 103.3) (xy 111.7 103.3) (xy 111.7 108.5) (xy 108.7 108.5)
      )
    )
    (filled_polygon
      (pts
        (xy 111.6873 108.4873) (xy 108.7127 108.4873) (xy 108.7127 103.3127) (xy 111.6873 103.3127)
      )
    )
  )
  (zone (net 24) (net_name "Net-(R3-Pad2)") (layer F.Cu) (tstamp 0) (hatch edge 0.508)
    (connect_pads yes (clearance 0.0254))
    (min_thickness 0.0254)
    (fill yes (arc_segments 32) (thermal_gap 0.254) (thermal_bridge_width 0.508))
    (polygon
      (pts
        (xy 112.8 102.1) (xy 118.7 102.1) (xy 118.7 103) (xy 112.8 103)
      )
    )
    (filled_polygon
      (pts
        (xy 118.6873 102.9873) (xy 112.8127 102.9873) (xy 112.8127 102.1127) (xy 118.6873 102.1127)
      )
    )
  )
  (zone (net 2) (net_name GND) (layer F.Cu) (tstamp 0) (hatch edge 0.508)
    (connect_pads yes (clearance 0.0254))
    (min_thickness 0.0254)
    (fill yes (arc_segments 32) (thermal_gap 0.254) (thermal_bridge_width 0.508))
    (polygon
      (pts
        (xy 125 125) (xy 100 125.05) (xy 100 123) (xy 106.3 123) (xy 106.3 117.6)
        (xy 108.1 117.6) (xy 108.1 117.7) (xy 109.3 117.7) (xy 109.3 112.5) (xy 112.3 112.5)
        (xy 112.3 119.3) (xy 116.6 119.3) (xy 116.6 117.5) (xy 122 117.5) (xy 122 107.7)
        (xy 120 107.7) (xy 120 101.5) (xy 107.7 101.5) (xy 107.70587 105) (xy 100 105)
        (xy 100 100) (xy 125 100)
      )
    )
    (filled_polygon
      (pts
        (xy 124.8869 124.8869) (xy 100.1131 124.8869) (xy 100.1131 123.0127) (xy 106.3 123.0127) (xy 106.303538 123.012197)
        (xy 106.306796 123.010729) (xy 106.309516 123.00841) (xy 106.311482 123.005426) (xy 106.31254 123.002013) (xy 106.3127 123)
        (xy 106.3127 117.665898) (xy 108.025 117.665898) (xy 108.051291 117.663801) (xy 108.0873 117.65265) (xy 108.0873 117.7)
        (xy 108.087803 117.703538) (xy 108.089271 117.706796) (xy 108.09159 117.709516) (xy 108.094574 117.711482) (xy 108.097987 117.71254)
        (xy 108.1 117.7127) (xy 109.3 117.7127) (xy 109.303538 117.712197) (xy 109.306796 117.710729) (xy 109.309516 117.70841)
        (xy 109.311482 117.705426) (xy 109.31254 117.702013) (xy 109.3127 117.7) (xy 109.3127 112.5127) (xy 112.2873 112.5127)
        (xy 112.2873 119.3) (xy 112.287803 119.303538) (xy 112.289271 119.306796) (xy 112.29159 119.309516) (xy 112.294574 119.311482)
        (xy 112.297987 119.31254) (xy 112.3 119.3127) (xy 116.6 119.3127) (xy 116.603538 119.312197) (xy 116.606796 119.310729)
        (xy 116.609516 119.30841) (xy 116.611482 119.305426) (xy 116.61254 119.302013) (xy 116.6127 119.3) (xy 116.6127 117.5127)
        (xy 122 117.5127) (xy 122.003538 117.512197) (xy 122.006796 117.510729) (xy 122.009516 117.50841) (xy 122.011482 117.505426)
        (xy 122.01254 117.502013) (xy 122.0127 117.5) (xy 122.0127 107.7) (xy 122.012197 107.696462) (xy 122.010729 107.693204)
        (xy 122.00841 107.690484) (xy 122.005426 107.688518) (xy 122.002013 107.68746) (xy 122 107.6873) (xy 120.0127 107.6873)
        (xy 120.0127 101.5) (xy 120.012197 101.496462) (xy 120.010729 101.493204) (xy 120.00841 101.490484) (xy 120.005426 101.488518)
        (xy 120.002013 101.48746) (xy 120 101.4873) (xy 107.7 101.4873) (xy 107.696462 101.487803) (xy 107.693204 101.489271)
        (xy 107.690484 101.49159) (xy 107.688518 101.494574) (xy 107.68746 101.497987) (xy 107.6873 101.500021) (xy 107.693149 104.9873)
        (xy 100.1131 104.9873) (xy 100.1131 100.1131) (xy 124.8869 100.1131)
      )
    )
  )
)
